new/waveform.vcd
$date
	Tue Apr  2 11:55:32 2024
$end
$version
	Icarus Verilog
$end
$timescale
	1ps
$end
$scope module main_tb $end
$var reg 1 ! clk $end
$var reg 1 " reset $end
$scope module dut $end
$var wire 1 ! clk $end
$var wire 1 " rst $end
$var wire 1 # wb_sel_en $end
$var wire 1 $ write_enable $end
$var wire 1 % wr_enMW $end
$var wire 32 & wdata2 [31:0] $end
$var wire 1 ' wb_selMW $end
$var wire 2 ( wb_sel [1:0] $end
$var wire 1 ) select_b $end
$var wire 1 * sel_A $end
$var wire 5 + rs2 [4:0] $end
$var wire 5 , rs1 [4:0] $end
$var wire 1 - reg_wrMW $end
$var wire 1 . reg_wr $end
$var wire 32 / rdata2_E2M [31:0] $end
$var wire 32 0 rdata2 [31:0] $end
$var wire 32 1 rdata1 [31:0] $end
$var wire 1 2 rd_enMW $end
$var wire 1 3 rd_en $end
$var wire 5 4 rd [4:0] $end
$var wire 32 5 pc_next [31:0] $end
$var wire 32 6 pc_current [31:0] $end
$var wire 4 7 opselect [3:0] $end
$var wire 7 8 opcode [6:0] $end
$var wire 32 9 mux_pc_output [31:0] $end
$var wire 32 : mux_b_output [31:0] $end
$var wire 32 ; mux3_operand_a [31:0] $end
$var wire 32 < loaded_data [31:0] $end
$var wire 32 = immediate_out [31:0] $end
$var wire 32 > immediate [31:0] $end
$var wire 7 ? funct7 [6:0] $end
$var wire 3 @ funct3 [2:0] $end
$var wire 32 A forwarded_B_output [31:0] $end
$var wire 32 B forwarded_A_output [31:0] $end
$var wire 2 C br_type [1:0] $end
$var wire 1 D br_taken $end
$var wire 32 E alu_output [31:0] $end
$var wire 32 F PC_F [31:0] $end
$var wire 32 G PC_E [31:0] $end
$var wire 32 H Inst_F [31:0] $end
$var wire 32 I Inst_E2M [31:0] $end
$var wire 32 J Inst [31:0] $end
$var wire 32 K ALU_E [31:0] $end
$var parameter 32 L WIDTH $end
$scope module ALUE2M $end
$var wire 1 ! clk $end
$var wire 1 " rst $end
$var wire 32 M D [31:0] $end
$var reg 32 N Q [31:0] $end
$upscope $end
$scope module InstE2M $end
$var wire 1 ! clk $end
$var wire 1 " rst $end
$var wire 32 O D [31:0] $end
$var reg 32 P Q [31:0] $end
$upscope $end
$scope module InstF2D $end
$var wire 1 ! clk $end
$var wire 1 Q rst $end
$var wire 32 R D [31:0] $end
$var reg 32 S Q [31:0] $end
$upscope $end
$scope module PCE2M $end
$var wire 1 ! clk $end
$var wire 1 " rst $end
$var wire 32 T D [31:0] $end
$var reg 32 U Q [31:0] $end
$upscope $end
$scope module PCF2D $end
$var wire 1 ! clk $end
$var wire 1 " rst $end
$var wire 32 V D [31:0] $end
$var reg 32 W Q [31:0] $end
$upscope $end
$scope module WDE2M $end
$var wire 1 ! clk $end
$var wire 1 " rst $end
$var wire 32 X D [31:0] $end
$var reg 32 Y Q [31:0] $end
$upscope $end
$scope module alu1 $end
$var wire 4 Z opselect [3:0] $end
$var wire 32 [ operand_b [31:0] $end
$var wire 32 \ operand_a [31:0] $end
$var parameter 32 ] WIDTH $end
$var reg 32 ^ result [31:0] $end
$upscope $end
$scope module branch_cond1 $end
$var wire 32 _ rs2_data [31:0] $end
$var wire 32 ` rs1_data [31:0] $end
$var wire 7 a opcode [6:0] $end
$var wire 3 b funct3 [2:0] $end
$var wire 2 c br_type [1:0] $end
$var reg 1 D br_taken $end
$upscope $end
$scope module controller1 $end
$var wire 32 d Inst [31:0] $end
$var wire 7 e opcode [6:0] $end
$var wire 7 f funct7 [6:0] $end
$var wire 3 g funct3 [2:0] $end
$var reg 4 h alu_op [3:0] $end
$var reg 2 i br_type [1:0] $end
$var reg 1 3 rd_en $end
$var reg 1 . reg_wr $end
$var reg 1 * sel_A $end
$var reg 1 ) select_b $end
$var reg 2 j wb_sel [1:0] $end
$var reg 1 $ write_enable $end
$upscope $end
$scope module controllerE2M_1 $end
$var wire 1 . D $end
$var wire 1 ! clk $end
$var wire 1 " rst $end
$var reg 1 - Q $end
$upscope $end
$scope module controllerE2M_2 $end
$var wire 1 $ D $end
$var wire 1 ! clk $end
$var wire 1 " rst $end
$var reg 1 % Q $end
$upscope $end
$scope module controllerE2M_3 $end
$var wire 1 3 D $end
$var wire 1 ! clk $end
$var wire 1 " rst $end
$var reg 1 2 Q $end
$upscope $end
$scope module controllerE2M_4 $end
$var wire 1 # D $end
$var wire 1 ! clk $end
$var wire 1 " rst $end
$var reg 1 ' Q $end
$upscope $end
$scope module data_mem $end
$var wire 1 ! clk $end
$var wire 11 k read_address [10:0] $end
$var wire 1 3 read_en $end
$var wire 11 l write_address [10:0] $end
$var wire 1 $ write_enable $end
$var wire 32 m data_in [31:0] $end
$var reg 32 n data_out [31:0] $end
$upscope $end
$scope module forward_mux1 $end
$var wire 32 o b [31:0] $end
$var wire 32 p out [31:0] $end
$var wire 1 q select_b $end
$var wire 32 r a [31:0] $end
$upscope $end
$scope module forward_mux3 $end
$var wire 32 s b [31:0] $end
$var wire 32 t out [31:0] $end
$var wire 1 u select_b $end
$var wire 32 v a [31:0] $end
$upscope $end
$scope module immediate1 $end
$var wire 32 w In [31:0] $end
$var reg 32 x Out [31:0] $end
$upscope $end
$scope module instr_decoder1 $end
$var wire 32 y instr [31:0] $end
$var wire 5 z rs2 [4:0] $end
$var wire 5 { rs1 [4:0] $end
$var wire 5 | rd [4:0] $end
$var wire 7 } opcode [6:0] $end
$var wire 7 ~ funct7 [6:0] $end
$var wire 3 !" funct3 [2:0] $end
$var reg 32 "" immediate [31:0] $end
$upscope $end
$scope module instr_memory1 $end
$var wire 32 #" Inst [31:0] $end
$var wire 32 $" Addr [31:0] $end
$upscope $end
$scope module mux $end
$var wire 32 %" alu_out [31:0] $end
$var wire 32 &" rdata [31:0] $end
$var wire 2 '" wb_sel [1:0] $end
$var wire 32 (" PC [31:0] $end
$var reg 32 )" out [31:0] $end
$upscope $end
$scope module mux1 $end
$var wire 32 *" a [31:0] $end
$var wire 32 +" b [31:0] $end
$var wire 1 ) select_b $end
$var wire 32 ," out [31:0] $end
$upscope $end
$scope module mux3 $end
$var wire 32 -" a [31:0] $end
$var wire 32 ." b [31:0] $end
$var wire 1 * select_b $end
$var wire 32 /" out [31:0] $end
$upscope $end
$scope module mux_pc $end
$var wire 32 0" b [31:0] $end
$var wire 1 D select_b $end
$var wire 32 1" out [31:0] $end
$var wire 32 2" a [31:0] $end
$upscope $end
$scope module pc1 $end
$var wire 1 ! clk $end
$var wire 32 3" pc_next [31:0] $end
$var wire 1 " rst $end
$var parameter 32 4" WIDTH $end
$var reg 32 5" pc_current [31:0] $end
$upscope $end
$scope module pc_adder1 $end
$var wire 32 6" pc_in [31:0] $end
$var wire 32 7" pc_out [31:0] $end
$var parameter 32 8" WIDTH $end
$upscope $end
$scope module register_file1 $end
$var wire 1 ! clk $end
$var wire 5 9" raddr1 [4:0] $end
$var wire 5 :" raddr2 [4:0] $end
$var wire 1 . reg_wr $end
$var wire 5 ;" waddr [4:0] $end
$var wire 32 <" wdata [31:0] $end
$var wire 32 =" rdata2 [31:0] $end
$var wire 32 >" rdata1 [31:0] $end
$var parameter 32 ?" ADDR_WIDTH $end
$var parameter 32 @" DATA_WIDTH $end
$upscope $end
$upscope $end
$upscope $end
$enddefinitions $end
$comment Show the parameter values. $end
$dumpall
b100000 @"
b101 ?"
b100000 8"
b100000 4"
b100000 ]
b100000 L
$end
#0
$dumpvars
bx >"
bx ="
b0 <"
b0 ;"
bx :"
bx 9"
b100 7"
b0 6"
b0 5"
b100 3"
b100 2"
b100 1"
bx 0"
bx /"
b0 ."
bx -"
bx ,"
bx +"
bx *"
b0 )"
b0 ("
bx '"
b0 &"
bx %"
b0 $"
b101000000000010000010011 #"
bx ""
bx !"
bx ~
bx }
bx |
bx {
bx z
bx y
bx x
bx w
bx v
0u
bx t
bx s
bx r
0q
bx p
bx o
b0 n
bx m
bx l
bx k
bx j
bx i
bx h
bx g
bx f
bx e
bx d
bx c
bx b
bx a
bx `
bx _
bx ^
bx \
bx [
bx Z
b0 Y
bx X
b0 W
b0 V
b0 U
b0 T
bx S
b101000000000010000010011 R
1Q
b0 P
bx O
b0 N
bx M
b0 K
b101000000000010000010011 J
b0 I
bx H
b0 G
b0 F
bx E
0D
bx C
bx B
bx A
bx @
bx ?
bx >
bx =
b0 <
bx ;
bx :
b100 9
bx 8
bx 7
b0 6
b100 5
bx 4
x3
02
bx 1
bx 0
b0 /
x.
0-
bx ,
bx +
x*
x)
bx (
0'
b0 &
0%
x$
z#
0"
0!
$end
#5000
b1010 k
b1010 l
b1010 E
b1010 M
b1010 ^
b1010 o
b1010 s
b1010 %"
b1010 0"
b1010 :
b1010 [
b1010 ,"
b1010 =
b1010 x
b1010 +"
b1010 &
b1010 )"
b1010 <"
b0 ;
b0 \
b0 /"
b0 7
b0 Z
b0 h
0*
b0 C
b0 c
b0 i
0$
b1 (
b1 j
b1 '"
03
1)
1.
b0 B
b0 t
b0 -"
b0 1
b0 `
b0 v
b0 >"
b1010 A
b1010 p
b1010 *"
b1010 0
b1010 X
b1010 _
b1010 m
b1010 r
b1010 ="
b0 g
b0 f
b10011 e
b10011 8
b10011 a
b10011 }
b1000 4
b1000 |
b0 @
b0 b
b0 !"
b0 ,
b0 {
b0 9"
b1010 +
b1010 z
b1010 :"
b0 ?
b0 ~
b1010 >
b1010 ""
b101000000000010000010011 H
b101000000000010000010011 O
b101000000000010000010011 S
b101000000000010000010011 d
b101000000000010000010011 w
b101000000000010000010011 y
1!
#10000
0!
#15000
b1000 9
b1000 1"
b1000 3"
b110010000000000010010010011 J
b110010000000000010010010011 R
b110010000000000010010010011 #"
b1000 ;"
b1000 5
b1000 2"
b1000 7"
b100 6
b100 V
b100 $"
b100 ("
b100 5"
b100 6"
b1010 K
b1010 N
b1010 /
b1010 Y
b101000000000010000010011 I
b101000000000010000010011 P
1-
z'
1!
1"
#20000
0!
#25000
b1100100 k
b1100100 l
b1100100 &
b1100100 )"
b1100100 <"
b1100100 E
b1100100 M
b1100100 ^
b1100100 o
b1100100 s
b1100100 %"
b1100100 0"
b1100100 :
b1100100 [
b1100100 ,"
b1100100 =
b1100100 x
b1100100 +"
bx A
bx p
bx *"
bx 0
bx X
bx _
bx m
bx r
bx ="
b1100 9
b1100 1"
b1100 3"
b100101000000101001100011 J
b100101000000101001100011 R
b100101000000101001100011 #"
b11 f
b1001 4
b1001 |
b100 +
b100 z
b100 :"
b11 ?
b11 ~
b1100100 >
b1100100 ""
b100 F
b100 T
b100 W
b100 ."
b1100 5
b1100 2"
b1100 7"
b1000 6
b1000 V
b1000 $"
b1000 ("
b1000 5"
b1000 6"
b110010000000000010010010011 H
b110010000000000010010010011 O
b110010000000000010010010011 S
b110010000000000010010010011 d
b110010000000000010010010011 w
b110010000000000010010010011 y
1!
#30000
0!
#35000
b10100 :
b10100 [
b10100 ,"
b10100 =
b10100 x
b10100 +"
b11100 k
b11100 l
b11100 E
b11100 M
b11100 ^
b11100 o
b11100 s
b11100 %"
b11100 0"
b0 &
b0 )"
b0 <"
b1000 ;
b1000 \
b1000 /"
xQ
xD
1*
b1 C
b1 c
b1 i
b0 (
b0 j
b0 '"
b1100100 B
b1100100 t
b1100100 -"
b1100100 1
b1100100 `
b1100100 v
b1100100 >"
b1xx00 9
b1xx00 1"
b1xx00 3"
b100101000100010001100011 J
b100101000100010001100011 R
b100101000100010001100011 #"
b1001 ;"
b0 f
b1100011 e
b1100011 8
b1100011 a
b1100011 }
b10100 4
b10100 |
b1000 ,
b1000 {
b1000 9"
b1001 +
b1001 z
b1001 :"
b0 ?
b0 ~
b10100 >
b10100 ""
b10000 5
b10000 2"
b10000 7"
b1100 6
b1100 V
b1100 $"
b1100 ("
b1100 5"
b1100 6"
b1000 F
b1000 T
b1000 W
b1000 ."
b100 G
b100 U
b1100100 K
b1100100 N
bx /
bx Y
b110010000000000010010010011 I
b110010000000000010010010011 P
b100101000000101001100011 H
b100101000000101001100011 O
b100101000000101001100011 S
b100101000000101001100011 d
b100101000000101001100011 w
b100101000000101001100011 y
1!
#40000
b10000 9
b10000 1"
b10000 3"
1Q
0D
b0 A
b0 p
b0 *"
b0 0
b0 X
b0 _
b0 m
b0 r
b0 ="
0!
#45000
b1000 :
b1000 [
b1000 ,"
b1000 =
b1000 x
b1000 +"
b10100 k
b10100 l
b10100 E
b10100 M
b10100 ^
b10100 o
b10100 s
b10100 %"
b10100 0"
b10100 ;"
b1100 ;
b1100 \
b1100 /"
b10100 9
b10100 1"
b10100 3"
b1000000100101000000010000110011 J
b1000000100101000000010000110011 R
b1000000100101000000010000110011 #"
b100 g
b1000 4
b1000 |
b100 @
b100 b
b100 !"
b1000 >
b1000 ""
b100101000000101001100011 I
b100101000000101001100011 P
b0 /
b0 Y
b11100 K
b11100 N
b1000 G
b1000 U
b1100 F
b1100 T
b1100 W
b1100 ."
b10100 5
b10100 2"
b10100 7"
b10000 6
b10000 V
b10000 $"
b10000 ("
b10000 5"
b10000 6"
b100101000100010001100011 H
b100101000100010001100011 O
b100101000100010001100011 S
b100101000100010001100011 d
b100101000100010001100011 w
b100101000100010001100011 y
1!
#50000
0!
#55000
b0 =
b0 x
b0 +"
b1100100 k
b1100100 l
b1100100 &
b1100100 )"
b1100100 <"
b0 :
b0 [
b0 ,"
b1100100 E
b1100100 M
b1100100 ^
b1100100 o
b1100100 s
b1100100 %"
b1100100 0"
b1 7
b1 Z
b1 h
0*
b0 C
b0 c
b0 i
b1 (
b1 j
b1 '"
0)
b11000 9
b11000 1"
b11000 3"
b1000000100001001000010010110011 J
b1000000100001001000010010110011 R
b1000000100001001000010010110011 #"
b1100100 ;
b1100100 \
b1100100 /"
b1000 ;"
b0 g
b100000 f
b110011 e
b110011 8
b110011 a
b110011 }
b0 @
b0 b
b0 !"
b100000 ?
b100000 ~
b0 >
b0 ""
b11000 5
b11000 2"
b11000 7"
b10100 6
b10100 V
b10100 $"
b10100 ("
b10100 5"
b10100 6"
b10000 F
b10000 T
b10000 W
b10000 ."
b1100 G
b1100 U
b10100 K
b10100 N
b100101000100010001100011 I
b100101000100010001100011 P
b1000000100101000000010000110011 H
b1000000100101000000010000110011 O
b1000000100101000000010000110011 S
b1000000100101000000010000110011 d
b1000000100101000000010000110011 w
b1000000100101000000010000110011 y
1!
#60000
0!
#65000
b11110011100 k
b11110011100 l
b11111111111111111111111110011100 &
b11111111111111111111111110011100 )"
b11111111111111111111111110011100 <"
b11111111111111111111111110011100 E
b11111111111111111111111110011100 M
b11111111111111111111111110011100 ^
b11111111111111111111111110011100 o
b11111111111111111111111110011100 s
b11111111111111111111111110011100 %"
b11111111111111111111111110011100 0"
b0 ;
b0 \
b0 /"
b1100100 :
b1100100 [
b1100100 ,"
b0 B
b0 t
b0 -"
b0 1
b0 `
b0 v
b0 >"
b1100100 A
b1100100 p
b1100100 *"
b1100100 0
b1100100 X
b1100100 _
b1100100 m
b1100100 r
b1100100 ="
b11100 9
b11100 1"
b11100 3"
b11111111000111111111000001101111 J
b11111111000111111111000001101111 R
b11111111000111111111000001101111 #"
b1001 4
b1001 |
b1001 ,
b1001 {
b1001 9"
b1000 +
b1000 z
b1000 :"
b1000000100101000000010000110011 I
b1000000100101000000010000110011 P
b1100100 K
b1100100 N
b10000 G
b10000 U
b10100 F
b10100 T
b10100 W
b10100 ."
b11100 5
b11100 2"
b11100 7"
b11000 6
b11000 V
b11000 $"
b11000 ("
b11000 5"
b11000 6"
b1000000100001001000010010110011 H
b1000000100001001000010010110011 O
b1000000100001001000010010110011 S
b1000000100001001000010010110011 d
b1000000100001001000010010110011 w
b1000000100001001000010010110011 y
1!
#70000
b1100100 k
b1100100 l
b1100100 &
b1100100 )"
b1100100 <"
b1100100 E
b1100100 M
b1100100 ^
b1100100 o
b1100100 s
b1100100 %"
b1100100 0"
b11111111111111111111111110011100 :
b11111111111111111111111110011100 [
b11111111111111111111111110011100 ,"
b11111111111111111111111110011100 A
b11111111111111111111111110011100 p
b11111111111111111111111110011100 *"
b11111111111111111111111110011100 0
b11111111111111111111111110011100 X
b11111111111111111111111110011100 _
b11111111111111111111111110011100 m
b11111111111111111111111110011100 r
b11111111111111111111111110011100 ="
0!
#75000
b11111111111111111111111111111000 =
b11111111111111111111111111111000 x
b11111111111111111111111111111000 +"
b10000 k
b10000 l
b10000 E
b10000 M
b10000 ^
b10000 o
b10000 s
b10000 %"
b10000 0"
0Q
1D
b100000 &
b100000 )"
b100000 <"
b11000 ;
b11000 \
b11000 /"
b11111111111111111111111111111000 :
b11111111111111111111111111111000 [
b11111111111111111111111111111000 ,"
1)
b0 7
b0 Z
b0 h
1*
b10 C
b10 c
b10 i
b10 (
b10 j
b10 '"
b1111111111111111111111111110000 >
b1111111111111111111111111110000 ""
bx B
bx t
bx -"
bx 1
bx `
bx v
bx >"
bx A
bx p
bx *"
bx 0
bx X
bx _
bx m
bx r
bx ="
b10000 9
b10000 1"
b10000 3"
b100000000010010000100011 J
b100000000010010000100011 R
b100000000010010000100011 #"
b1001 ;"
b111 g
b1111111 f
b1101111 e
b1101111 8
b1101111 a
b1101111 }
b0 4
b0 |
b111 @
b111 b
b111 !"
b11111 ,
b11111 {
b11111 9"
b10001 +
b10001 z
b10001 :"
b1111111 ?
b1111111 ~
b100000 5
b100000 2"
b100000 7"
b11100 6
b11100 V
b11100 $"
b11100 ("
b11100 5"
b11100 6"
b11000 F
b11000 T
b11000 W
b11000 ."
b10100 G
b10100 U
b11111111111111111111111110011100 /
b11111111111111111111111110011100 Y
b1000000100001001000010010110011 I
b1000000100001001000010010110011 P
b11111111000111111111000001101111 H
b11111111000111111111000001101111 O
b11111111000111111111000001101111 S
b11111111000111111111000001101111 d
b11111111000111111111000001101111 w
b11111111000111111111000001101111 y
1!
#80000
0!
#85000
b0 :
b0 [
b0 ,"
b0 =
b0 x
b0 +"
b11100 9
b11100 1"
b11100 3"
b11100 k
b11100 l
b11100 E
b11100 M
b11100 ^
b11100 o
b11100 s
b11100 %"
b11100 0"
b0 B
b0 t
b0 -"
b0 1
b0 `
b0 v
b0 >"
b0 A
b0 p
b0 *"
b0 0
b0 X
b0 _
b0 m
b0 r
b0 ="
b0 ;"
b11100 ;
b11100 \
b11100 /"
b1000000100101000000010000110011 J
b1000000100101000000010000110011 R
b1000000100101000000010000110011 #"
b10100 &
b10100 )"
b10100 <"
b0 g
b0 f
b0 e
b0 8
b0 a
b0 }
b0 @
b0 b
b0 !"
b0 ,
b0 {
b0 9"
b0 +
b0 z
b0 :"
b0 ?
b0 ~
b0 >
b0 ""
b11111111000111111111000001101111 I
b11111111000111111111000001101111 P
bx /
bx Y
b10000 K
b10000 N
b11000 G
b11000 U
b11100 F
b11100 T
b11100 W
b11100 ."
b10100 5
b10100 2"
b10100 7"
b10000 6
b10000 V
b10000 $"
b10000 ("
b10000 5"
b10000 6"
b0 H
b0 O
b0 S
b0 d
b0 w
b0 y
1!
#90000
0!
#95000
b10000 9
b10000 1"
b10000 3"
b10000 k
b10000 l
b10000 E
b10000 M
b10000 ^
b10000 o
b10000 s
b10000 %"
b10000 0"
b100000000010010000100011 J
b100000000010010000100011 R
b100000000010010000100011 #"
b100000 &
b100000 )"
b100000 <"
b10000 ;
b10000 \
b10000 /"
b100000 5
b100000 2"
b100000 7"
b11100 6
b11100 V
b11100 $"
b11100 ("
b11100 5"
b11100 6"
b10000 F
b10000 T
b10000 W
b10000 ."
b11100 G
b11100 U
b11100 K
b11100 N
b0 /
b0 Y
b0 I
b0 P
1!
#100000
0!
#105000
b11100 9
b11100 1"
b11100 3"
b11100 k
b11100 l
b11100 E
b11100 M
b11100 ^
b11100 o
b11100 s
b11100 %"
b11100 0"
b11100 ;
b11100 \
b11100 /"
b1000000100101000000010000110011 J
b1000000100101000000010000110011 R
b1000000100101000000010000110011 #"
b10100 &
b10100 )"
b10100 <"
b10000 K
b10000 N
b10000 G
b10000 U
b11100 F
b11100 T
b11100 W
b11100 ."
b10100 5
b10100 2"
b10100 7"
b10000 6
b10000 V
b10000 $"
b10000 ("
b10000 5"
b10000 6"
1!
#110000
0!
#115000
b10000 9
b10000 1"
b10000 3"
b10000 k
b10000 l
b10000 E
b10000 M
b10000 ^
b10000 o
b10000 s
b10000 %"
b10000 0"
b100000000010010000100011 J
b100000000010010000100011 R
b100000000010010000100011 #"
b100000 &
b100000 )"
b100000 <"
b10000 ;
b10000 \
b10000 /"
b100000 5
b100000 2"
b100000 7"
b11100 6
b11100 V
b11100 $"
b11100 ("
b11100 5"
b11100 6"
b10000 F
b10000 T
b10000 W
b10000 ."
b11100 G
b11100 U
b11100 K
b11100 N
1!
#120000
0!
#125000
b11100 9
b11100 1"
b11100 3"
b11100 k
b11100 l
b11100 E
b11100 M
b11100 ^
b11100 o
b11100 s
b11100 %"
b11100 0"
b11100 ;
b11100 \
b11100 /"
b1000000100101000000010000110011 J
b1000000100101000000010000110011 R
b1000000100101000000010000110011 #"
b10100 &
b10100 )"
b10100 <"
b10000 K
b10000 N
b10000 G
b10000 U
b11100 F
b11100 T
b11100 W
b11100 ."
b10100 5
b10100 2"
b10100 7"
b10000 6
b10000 V
b10000 $"
b10000 ("
b10000 5"
b10000 6"
1!
#130000
0!
#135000
b10000 9
b10000 1"
b10000 3"
b10000 k
b10000 l
b10000 E
b10000 M
b10000 ^
b10000 o
b10000 s
b10000 %"
b10000 0"
b100000000010010000100011 J
b100000000010010000100011 R
b100000000010010000100011 #"
b100000 &
b100000 )"
b100000 <"
b10000 ;
b10000 \
b10000 /"
b100000 5
b100000 2"
b100000 7"
b11100 6
b11100 V
b11100 $"
b11100 ("
b11100 5"
b11100 6"
b10000 F
b10000 T
b10000 W
b10000 ."
b11100 G
b11100 U
b11100 K
b11100 N
1!
#140000
0!
#145000
b11100 9
b11100 1"
b11100 3"
b11100 k
b11100 l
b11100 E
b11100 M
b11100 ^
b11100 o
b11100 s
b11100 %"
b11100 0"
b11100 ;
b11100 \
b11100 /"
b1000000100101000000010000110011 J
b1000000100101000000010000110011 R
b1000000100101000000010000110011 #"
b10100 &
b10100 )"
b10100 <"
b10000 K
b10000 N
b10000 G
b10000 U
b11100 F
b11100 T
b11100 W
b11100 ."
b10100 5
b10100 2"
b10100 7"
b10000 6
b10000 V
b10000 $"
b10000 ("
b10000 5"
b10000 6"
1!
#150000
0!
#155000
b10000 9
b10000 1"
b10000 3"
b10000 k
b10000 l
b10000 E
b10000 M
b10000 ^
b10000 o
b10000 s
b10000 %"
b10000 0"
b100000000010010000100011 J
b100000000010010000100011 R
b100000000010010000100011 #"
b100000 &
b100000 )"
b100000 <"
b10000 ;
b10000 \
b10000 /"
b100000 5
b100000 2"
b100000 7"
b11100 6
b11100 V
b11100 $"
b11100 ("
b11100 5"
b11100 6"
b10000 F
b10000 T
b10000 W
b10000 ."
b11100 G
b11100 U
b11100 K
b11100 N
1!
#160000
0!
#165000
b11100 9
b11100 1"
b11100 3"
b11100 k
b11100 l
b11100 E
b11100 M
b11100 ^
b11100 o
b11100 s
b11100 %"
b11100 0"
b11100 ;
b11100 \
b11100 /"
b1000000100101000000010000110011 J
b1000000100101000000010000110011 R
b1000000100101000000010000110011 #"
b10100 &
b10100 )"
b10100 <"
b10000 K
b10000 N
b10000 G
b10000 U
b11100 F
b11100 T
b11100 W
b11100 ."
b10100 5
b10100 2"
b10100 7"
b10000 6
b10000 V
b10000 $"
b10000 ("
b10000 5"
b10000 6"
1!
#170000
0!
#175000
b10000 9
b10000 1"
b10000 3"
b10000 k
b10000 l
b10000 E
b10000 M
b10000 ^
b10000 o
b10000 s
b10000 %"
b10000 0"
b100000000010010000100011 J
b100000000010010000100011 R
b100000000010010000100011 #"
b100000 &
b100000 )"
b100000 <"
b10000 ;
b10000 \
b10000 /"
b100000 5
b100000 2"
b100000 7"
b11100 6
b11100 V
b11100 $"
b11100 ("
b11100 5"
b11100 6"
b10000 F
b10000 T
b10000 W
b10000 ."
b11100 G
b11100 U
b11100 K
b11100 N
1!
#180000
0!
#185000
b11100 9
b11100 1"
b11100 3"
b11100 k
b11100 l
b11100 E
b11100 M
b11100 ^
b11100 o
b11100 s
b11100 %"
b11100 0"
b11100 ;
b11100 \
b11100 /"
b1000000100101000000010000110011 J
b1000000100101000000010000110011 R
b1000000100101000000010000110011 #"
b10100 &
b10100 )"
b10100 <"
b10000 K
b10000 N
b10000 G
b10000 U
b11100 F
b11100 T
b11100 W
b11100 ."
b10100 5
b10100 2"
b10100 7"
b10000 6
b10000 V
b10000 $"
b10000 ("
b10000 5"
b10000 6"
1!
#190000
0!
#195000
b10000 9
b10000 1"
b10000 3"
b10000 k
b10000 l
b10000 E
b10000 M
b10000 ^
b10000 o
b10000 s
b10000 %"
b10000 0"
b100000000010010000100011 J
b100000000010010000100011 R
b100000000010010000100011 #"
b100000 &
b100000 )"
b100000 <"
b10000 ;
b10000 \
b10000 /"
b100000 5
b100000 2"
b100000 7"
b11100 6
b11100 V
b11100 $"
b11100 ("
b11100 5"
b11100 6"
b10000 F
b10000 T
b10000 W
b10000 ."
b11100 G
b11100 U
b11100 K
b11100 N
1!
#200000
0!
#205000
b11100 9
b11100 1"
b11100 3"
b11100 k
b11100 l
b11100 E
b11100 M
b11100 ^
b11100 o
b11100 s
b11100 %"
b11100 0"
b11100 ;
b11100 \
b11100 /"
b1000000100101000000010000110011 J
b1000000100101000000010000110011 R
b1000000100101000000010000110011 #"
b10100 &
b10100 )"
b10100 <"
b10000 K
b10000 N
b10000 G
b10000 U
b11100 F
b11100 T
b11100 W
b11100 ."
b10100 5
b10100 2"
b10100 7"
b10000 6
b10000 V
b10000 $"
b10000 ("
b10000 5"
b10000 6"
1!
#210000
0!
#215000
b10000 9
b10000 1"
b10000 3"
b10000 k
b10000 l
b10000 E
b10000 M
b10000 ^
b10000 o
b10000 s
b10000 %"
b10000 0"
b100000000010010000100011 J
b100000000010010000100011 R
b100000000010010000100011 #"
b100000 &
b100000 )"
b100000 <"
b10000 ;
b10000 \
b10000 /"
b100000 5
b100000 2"
b100000 7"
b11100 6
b11100 V
b11100 $"
b11100 ("
b11100 5"
b11100 6"
b10000 F
b10000 T
b10000 W
b10000 ."
b11100 G
b11100 U
b11100 K
b11100 N
1!
#220000
0!
#225000
b11100 9
b11100 1"
b11100 3"
b11100 k
b11100 l
b11100 E
b11100 M
b11100 ^
b11100 o
b11100 s
b11100 %"
b11100 0"
b11100 ;
b11100 \
b11100 /"
b1000000100101000000010000110011 J
b1000000100101000000010000110011 R
b1000000100101000000010000110011 #"
b10100 &
b10100 )"
b10100 <"
b10000 K
b10000 N
b10000 G
b10000 U
b11100 F
b11100 T
b11100 W
b11100 ."
b10100 5
b10100 2"
b10100 7"
b10000 6
b10000 V
b10000 $"
b10000 ("
b10000 5"
b10000 6"
1!
#230000
0!
#235000
b10000 9
b10000 1"
b10000 3"
b10000 k
b10000 l
b10000 E
b10000 M
b10000 ^
b10000 o
b10000 s
b10000 %"
b10000 0"
b100000000010010000100011 J
b100000000010010000100011 R
b100000000010010000100011 #"
b100000 &
b100000 )"
b100000 <"
b10000 ;
b10000 \
b10000 /"
b100000 5
b100000 2"
b100000 7"
b11100 6
b11100 V
b11100 $"
b11100 ("
b11100 5"
b11100 6"
b10000 F
b10000 T
b10000 W
b10000 ."
b11100 G
b11100 U
b11100 K
b11100 N
1!
#240000
0!
#245000
b11100 9
b11100 1"
b11100 3"
b11100 k
b11100 l
b11100 E
b11100 M
b11100 ^
b11100 o
b11100 s
b11100 %"
b11100 0"
b11100 ;
b11100 \
b11100 /"
b1000000100101000000010000110011 J
b1000000100101000000010000110011 R
b1000000100101000000010000110011 #"
b10100 &
b10100 )"
b10100 <"
b10000 K
b10000 N
b10000 G
b10000 U
b11100 F
b11100 T
b11100 W
b11100 ."
b10100 5
b10100 2"
b10100 7"
b10000 6
b10000 V
b10000 $"
b10000 ("
b10000 5"
b10000 6"
1!
#250000
0!
#255000
b10000 9
b10000 1"
b10000 3"
b10000 k
b10000 l
b10000 E
b10000 M
b10000 ^
b10000 o
b10000 s
b10000 %"
b10000 0"
b100000000010010000100011 J
b100000000010010000100011 R
b100000000010010000100011 #"
b100000 &
b100000 )"
b100000 <"
b10000 ;
b10000 \
b10000 /"
b100000 5
b100000 2"
b100000 7"
b11100 6
b11100 V
b11100 $"
b11100 ("
b11100 5"
b11100 6"
b10000 F
b10000 T
b10000 W
b10000 ."
b11100 G
b11100 U
b11100 K
b11100 N
1!
#260000
0!
#265000
b11100 9
b11100 1"
b11100 3"
b11100 k
b11100 l
b11100 E
b11100 M
b11100 ^
b11100 o
b11100 s
b11100 %"
b11100 0"
b11100 ;
b11100 \
b11100 /"
b1000000100101000000010000110011 J
b1000000100101000000010000110011 R
b1000000100101000000010000110011 #"
b10100 &
b10100 )"
b10100 <"
b10000 K
b10000 N
b10000 G
b10000 U
b11100 F
b11100 T
b11100 W
b11100 ."
b10100 5
b10100 2"
b10100 7"
b10000 6
b10000 V
b10000 $"
b10000 ("
b10000 5"
b10000 6"
1!
#270000
0!
#275000
b10000 9
b10000 1"
b10000 3"
b10000 k
b10000 l
b10000 E
b10000 M
b10000 ^
b10000 o
b10000 s
b10000 %"
b10000 0"
b100000000010010000100011 J
b100000000010010000100011 R
b100000000010010000100011 #"
b100000 &
b100000 )"
b100000 <"
b10000 ;
b10000 \
b10000 /"
b100000 5
b100000 2"
b100000 7"
b11100 6
b11100 V
b11100 $"
b11100 ("
b11100 5"
b11100 6"
b10000 F
b10000 T
b10000 W
b10000 ."
b11100 G
b11100 U
b11100 K
b11100 N
1!
#280000
0!
